simulation/qsim/skeleton.msim.vcd
$comment
	File created using the following command:
		vcd file skeleton.msim.vcd -direction
$end
$date
	Thu Mar 29 17:14:11 2018
$end
$version
	ModelSim Version 10.4d
$end
$timescale
	1ps
$end

$scope module VGA_clock_converter_vlg_vec_tst $end
$var reg 1 ! CLOCK_50 $end
$var wire 1 " VGA_clock $end
$var wire 1 # clockCounter [31] $end
$var wire 1 $ clockCounter [30] $end
$var wire 1 % clockCounter [29] $end
$var wire 1 & clockCounter [28] $end
$var wire 1 ' clockCounter [27] $end
$var wire 1 ( clockCounter [26] $end
$var wire 1 ) clockCounter [25] $end
$var wire 1 * clockCounter [24] $end
$var wire 1 + clockCounter [23] $end
$var wire 1 , clockCounter [22] $end
$var wire 1 - clockCounter [21] $end
$var wire 1 . clockCounter [20] $end
$var wire 1 / clockCounter [19] $end
$var wire 1 0 clockCounter [18] $end
$var wire 1 1 clockCounter [17] $end
$var wire 1 2 clockCounter [16] $end
$var wire 1 3 clockCounter [15] $end
$var wire 1 4 clockCounter [14] $end
$var wire 1 5 clockCounter [13] $end
$var wire 1 6 clockCounter [12] $end
$var wire 1 7 clockCounter [11] $end
$var wire 1 8 clockCounter [10] $end
$var wire 1 9 clockCounter [9] $end
$var wire 1 : clockCounter [8] $end
$var wire 1 ; clockCounter [7] $end
$var wire 1 < clockCounter [6] $end
$var wire 1 = clockCounter [5] $end
$var wire 1 > clockCounter [4] $end
$var wire 1 ? clockCounter [3] $end
$var wire 1 @ clockCounter [2] $end
$var wire 1 A clockCounter [1] $end
$var wire 1 B clockCounter [0] $end

$scope module i1 $end
$var wire 1 C gnd $end
$var wire 1 D vcc $end
$var wire 1 E unknown $end
$var tri1 1 F devclrn $end
$var tri1 1 G devpor $end
$var tri1 1 H devoe $end
$var wire 1 I VGA_clock~output_o $end
$var wire 1 J clockCounter[0]~output_o $end
$var wire 1 K clockCounter[1]~output_o $end
$var wire 1 L clockCounter[2]~output_o $end
$var wire 1 M clockCounter[3]~output_o $end
$var wire 1 N clockCounter[4]~output_o $end
$var wire 1 O clockCounter[5]~output_o $end
$var wire 1 P clockCounter[6]~output_o $end
$var wire 1 Q clockCounter[7]~output_o $end
$var wire 1 R clockCounter[8]~output_o $end
$var wire 1 S clockCounter[9]~output_o $end
$var wire 1 T clockCounter[10]~output_o $end
$var wire 1 U clockCounter[11]~output_o $end
$var wire 1 V clockCounter[12]~output_o $end
$var wire 1 W clockCounter[13]~output_o $end
$var wire 1 X clockCounter[14]~output_o $end
$var wire 1 Y clockCounter[15]~output_o $end
$var wire 1 Z clockCounter[16]~output_o $end
$var wire 1 [ clockCounter[17]~output_o $end
$var wire 1 \ clockCounter[18]~output_o $end
$var wire 1 ] clockCounter[19]~output_o $end
$var wire 1 ^ clockCounter[20]~output_o $end
$var wire 1 _ clockCounter[21]~output_o $end
$var wire 1 ` clockCounter[22]~output_o $end
$var wire 1 a clockCounter[23]~output_o $end
$var wire 1 b clockCounter[24]~output_o $end
$var wire 1 c clockCounter[25]~output_o $end
$var wire 1 d clockCounter[26]~output_o $end
$var wire 1 e clockCounter[27]~output_o $end
$var wire 1 f clockCounter[28]~output_o $end
$var wire 1 g clockCounter[29]~output_o $end
$var wire 1 h clockCounter[30]~output_o $end
$var wire 1 i clockCounter[31]~output_o $end
$var wire 1 j CLOCK_50~input_o $end
$var wire 1 k Add0~0_combout $end
$var wire 1 l clockCounter~0_combout $end
$var wire 1 m clockCounter[0]~reg0_q $end
$var wire 1 n Add0~1 $end
$var wire 1 o Add0~2_combout $end
$var wire 1 p clockCounter~1_combout $end
$var wire 1 q clockCounter[1]~reg0_q $end
$var wire 1 r Add0~3 $end
$var wire 1 s Add0~4_combout $end
$var wire 1 t clockCounter[2]~reg0_q $end
$var wire 1 u Add0~5 $end
$var wire 1 v Add0~6_combout $end
$var wire 1 w clockCounter~2_combout $end
$var wire 1 x clockCounter[3]~reg0_q $end
$var wire 1 y Equal0~0_combout $end
$var wire 1 z Add0~7 $end
$var wire 1 { Add0~8_combout $end
$var wire 1 | clockCounter[4]~reg0_q $end
$var wire 1 } Add0~9 $end
$var wire 1 ~ Add0~10_combout $end
$var wire 1 !! clockCounter[5]~reg0_q $end
$var wire 1 "! Add0~11 $end
$var wire 1 #! Add0~12_combout $end
$var wire 1 $! clockCounter[6]~reg0_q $end
$var wire 1 %! Add0~13 $end
$var wire 1 &! Add0~14_combout $end
$var wire 1 '! clockCounter[7]~reg0_q $end
$var wire 1 (! Equal0~1_combout $end
$var wire 1 )! Add0~15 $end
$var wire 1 *! Add0~16_combout $end
$var wire 1 +! clockCounter[8]~reg0_q $end
$var wire 1 ,! Add0~17 $end
$var wire 1 -! Add0~18_combout $end
$var wire 1 .! clockCounter[9]~reg0_q $end
$var wire 1 /! Add0~19 $end
$var wire 1 0! Add0~20_combout $end
$var wire 1 1! clockCounter[10]~reg0_q $end
$var wire 1 2! Add0~21 $end
$var wire 1 3! Add0~22_combout $end
$var wire 1 4! clockCounter[11]~reg0_q $end
$var wire 1 5! Equal0~2_combout $end
$var wire 1 6! Add0~23 $end
$var wire 1 7! Add0~24_combout $end
$var wire 1 8! clockCounter[12]~reg0_q $end
$var wire 1 9! Add0~25 $end
$var wire 1 :! Add0~26_combout $end
$var wire 1 ;! clockCounter[13]~reg0_q $end
$var wire 1 <! Add0~27 $end
$var wire 1 =! Add0~28_combout $end
$var wire 1 >! clockCounter[14]~reg0_q $end
$var wire 1 ?! Add0~29 $end
$var wire 1 @! Add0~30_combout $end
$var wire 1 A! clockCounter[15]~reg0_q $end
$var wire 1 B! Equal0~3_combout $end
$var wire 1 C! Equal0~4_combout $end
$var wire 1 D! Add0~31 $end
$var wire 1 E! Add0~32_combout $end
$var wire 1 F! clockCounter[16]~reg0_q $end
$var wire 1 G! Add0~33 $end
$var wire 1 H! Add0~34_combout $end
$var wire 1 I! clockCounter[17]~reg0_q $end
$var wire 1 J! Add0~35 $end
$var wire 1 K! Add0~36_combout $end
$var wire 1 L! clockCounter[18]~reg0_q $end
$var wire 1 M! Add0~37 $end
$var wire 1 N! Add0~38_combout $end
$var wire 1 O! clockCounter[19]~reg0_q $end
$var wire 1 P! Equal0~5_combout $end
$var wire 1 Q! Add0~39 $end
$var wire 1 R! Add0~40_combout $end
$var wire 1 S! clockCounter[20]~reg0_q $end
$var wire 1 T! Add0~41 $end
$var wire 1 U! Add0~42_combout $end
$var wire 1 V! clockCounter[21]~reg0_q $end
$var wire 1 W! Equal0~6_combout $end
$var wire 1 X! Add0~43 $end
$var wire 1 Y! Add0~44_combout $end
$var wire 1 Z! clockCounter[22]~reg0_q $end
$var wire 1 [! Add0~45 $end
$var wire 1 \! Add0~46_combout $end
$var wire 1 ]! clockCounter[23]~reg0_q $end
$var wire 1 ^! Equal0~7_combout $end
$var wire 1 _! Add0~47 $end
$var wire 1 `! Add0~48_combout $end
$var wire 1 a! clockCounter[24]~reg0_q $end
$var wire 1 b! Add0~49 $end
$var wire 1 c! Add0~50_combout $end
$var wire 1 d! clockCounter[25]~reg0_q $end
$var wire 1 e! Add0~51 $end
$var wire 1 f! Add0~52_combout $end
$var wire 1 g! clockCounter[26]~reg0_q $end
$var wire 1 h! Add0~53 $end
$var wire 1 i! Add0~54_combout $end
$var wire 1 j! clockCounter[27]~reg0_q $end
$var wire 1 k! Equal0~8_combout $end
$var wire 1 l! Add0~55 $end
$var wire 1 m! Add0~56_combout $end
$var wire 1 n! clockCounter[28]~reg0_q $end
$var wire 1 o! Add0~57 $end
$var wire 1 p! Add0~58_combout $end
$var wire 1 q! clockCounter[29]~reg0_q $end
$var wire 1 r! Add0~59 $end
$var wire 1 s! Add0~60_combout $end
$var wire 1 t! clockCounter[30]~reg0_q $end
$var wire 1 u! Add0~61 $end
$var wire 1 v! Add0~62_combout $end
$var wire 1 w! clockCounter[31]~reg0_q $end
$var wire 1 x! Equal0~9_combout $end
$var wire 1 y! Equal0~10_combout $end
$var wire 1 z! VGA_clock~0_combout $end
$var wire 1 {! VGA_clock~reg0_q $end
$upscope $end
$upscope $end
$enddefinitions $end
#0
$dumpvars
0!
0"
0B
0A
0@
0?
0>
0=
0<
0;
0:
09
08
07
06
05
04
03
02
01
00
0/
0.
0-
0,
0+
0*
0)
0(
0'
0&
0%
0$
0#
0C
1D
xE
1F
1G
1H
0I
0J
0K
0L
0M
0N
0O
0P
0Q
0R
0S
0T
0U
0V
0W
0X
0Y
0Z
0[
0\
0]
0^
0_
0`
0a
0b
0c
0d
0e
0f
0g
0h
0i
0j
1k
1l
0m
0n
0o
0p
0q
1r
0s
0t
0u
0v
0w
0x
0y
1z
0{
0|
0}
0~
0!!
1"!
0#!
0$!
0%!
0&!
0'!
1(!
1)!
0*!
0+!
0,!
0-!
0.!
1/!
00!
01!
02!
03!
04!
15!
16!
07!
08!
09!
0:!
0;!
1<!
0=!
0>!
0?!
0@!
0A!
1B!
0C!
1D!
0E!
0F!
0G!
0H!
0I!
1J!
0K!
0L!
0M!
0N!
0O!
1P!
1Q!
0R!
0S!
0T!
0U!
0V!
1W!
1X!
0Y!
0Z!
0[!
0\!
0]!
1^!
1_!
0`!
0a!
0b!
0c!
0d!
1e!
0f!
0g!
0h!
0i!
0j!
1k!
1l!
0m!
0n!
0o!
0p!
0q!
1r!
0s!
0t!
0u!
0v!
0w!
1x!
0y!
0z!
0{!
$end
#5000
1!
1j
1m
1J
1n
0k
1B
1o
0l
1p
#10000
0!
0j
#15000
1!
1j
1q
0m
0J
1K
0r
0o
0n
1k
1A
0B
1r
1o
1s
0p
1l
0s
1p
#20000
0!
0j
#25000
1!
1j
1m
1J
1n
0k
1B
0r
0o
0l
1s
0p
#30000
0!
0j
#35000
1!
1j
1t
0q
0m
0J
0K
1L
1u
1r
1o
0n
1k
1@
0A
0B
0s
1v
0u
0o
1s
1p
1l
0v
1w
0p
0w
#40000
0!
0j
#45000
1!
1j
1m
1J
1n
0k
1B
1o
0l
1p
#50000
0!
0j
#55000
1!
1j
1q
0m
0J
1K
0r
0o
0n
1k
1A
0B
1u
1r
1o
0s
0p
1l
1v
0u
1s
1p
0v
1w
0w
#60000
0!
0j
#65000
1!
1j
1m
1J
1n
0k
1B
0r
0o
0l
1u
0s
0p
1v
1w
#70000
0!
0j
#75000
1!
1j
1x
0t
0q
0m
0J
0K
0L
1M
0z
0v
0u
1r
1o
0n
1k
1?
0@
0A
0B
1s
1z
1v
0o
1{
0w
0s
1p
1l
0{
1w
0p
#80000
0!
0j
#85000
1!
1j
1m
1J
1n
0k
1B
1o
0l
1p
#90000
0!
0j
#95000
1!
1j
1q
0m
0J
1K
1y
0r
0o
0n
1k
1A
0B
1C!
1r
1o
1s
0p
1l
1y!
0s
1p
1z!
0w
0p
0l
#100000
0!
0j
#105000
1!
1j
1{!
0x
0q
0K
0M
1I
0y
0v
0o
1"
0?
0A
0z!
0C!
0y!
1z!
1l
#110000
0!
0j
#115000
1!
1j
1m
1J
1n
0k
1B
1o
0l
1p
#120000
0!
0j
#125000
1!
1j
1q
0m
0J
1K
0r
0o
0n
1k
1A
0B
1r
1o
1s
0p
1l
0s
1p
#130000
0!
0j
#135000
1!
1j
1m
1J
1n
0k
1B
0r
0o
0l
1s
0p
#140000
0!
0j
#145000
1!
1j
1t
0q
0m
0J
0K
1L
1u
1r
1o
0n
1k
1@
0A
0B
0s
1v
0u
0o
1s
1p
1l
0v
1w
0p
0w
#150000
0!
0j
#155000
1!
1j
1m
1J
1n
0k
1B
1o
0l
1p
#160000
0!
0j
#165000
1!
1j
1q
0m
0J
1K
0r
0o
0n
1k
1A
0B
1u
1r
1o
0s
0p
1l
1v
0u
1s
1p
0v
1w
0w
#170000
0!
0j
#175000
1!
1j
1m
1J
1n
0k
1B
0r
0o
0l
1u
0s
0p
1v
1w
#180000
0!
0j
#185000
1!
1j
1x
0t
0q
0m
0J
0K
0L
1M
0z
0v
0u
1r
1o
0n
1k
1?
0@
0A
0B
1s
1z
1v
0o
1{
0w
0s
1p
1l
0{
1w
0p
#190000
0!
0j
#195000
1!
1j
1m
1J
1n
0k
1B
1o
0l
1p
#200000
0!
0j
#205000
1!
1j
1q
0m
0J
1K
1y
0r
0o
0n
1k
1A
0B
1C!
1r
1o
1s
0p
1l
1y!
0s
1p
0z!
0w
0p
0l
#210000
0!
0j
#215000
1!
1j
0{!
0x
0q
0K
0M
0I
0y
0v
0o
0"
0?
0A
1z!
0C!
0y!
0z!
1l
#220000
0!
0j
#225000
1!
1j
1m
1J
1n
0k
1B
1o
0l
1p
#230000
0!
0j
#235000
1!
1j
1q
0m
0J
1K
0r
0o
0n
1k
1A
0B
1r
1o
1s
0p
1l
0s
1p
#240000
0!
0j
#245000
1!
1j
1m
1J
1n
0k
1B
0r
0o
0l
1s
0p
#250000
0!
0j
#255000
1!
1j
1t
0q
0m
0J
0K
1L
1u
1r
1o
0n
1k
1@
0A
0B
0s
1v
0u
0o
1s
1p
1l
0v
1w
0p
0w
#260000
0!
0j
#265000
1!
1j
1m
1J
1n
0k
1B
1o
0l
1p
#270000
0!
0j
#275000
1!
1j
1q
0m
0J
1K
0r
0o
0n
1k
1A
0B
1u
1r
1o
0s
0p
1l
1v
0u
1s
1p
0v
1w
0w
#280000
0!
0j
#285000
1!
1j
1m
1J
1n
0k
1B
0r
0o
0l
1u
0s
0p
1v
1w
#290000
0!
0j
#295000
1!
1j
1x
0t
0q
0m
0J
0K
0L
1M
0z
0v
0u
1r
1o
0n
1k
1?
0@
0A
0B
1s
1z
1v
0o
1{
0w
0s
1p
1l
0{
1w
0p
#300000
0!
0j
#305000
1!
1j
1m
1J
1n
0k
1B
1o
0l
1p
#310000
0!
0j
#315000
1!
1j
1q
0m
0J
1K
1y
0r
0o
0n
1k
1A
0B
1C!
1r
1o
1s
0p
1l
1y!
0s
1p
1z!
0w
0p
0l
#320000
0!
0j
#325000
1!
1j
1{!
0x
0q
0K
0M
1I
0y
0v
0o
1"
0?
0A
0z!
0C!
0y!
1z!
1l
#330000
0!
0j
#335000
1!
1j
1m
1J
1n
0k
1B
1o
0l
1p
#340000
0!
0j
#345000
1!
1j
1q
0m
0J
1K
0r
0o
0n
1k
1A
0B
1r
1o
1s
0p
1l
0s
1p
#350000
0!
0j
#355000
1!
1j
1m
1J
1n
0k
1B
0r
0o
0l
1s
0p
#360000
0!
0j
#365000
1!
1j
1t
0q
0m
0J
0K
1L
1u
1r
1o
0n
1k
1@
0A
0B
0s
1v
0u
0o
1s
1p
1l
0v
1w
0p
0w
#370000
0!
0j
#375000
1!
1j
1m
1J
1n
0k
1B
1o
0l
1p
#380000
0!
0j
#385000
1!
1j
1q
0m
0J
1K
0r
0o
0n
1k
1A
0B
1u
1r
1o
0s
0p
1l
1v
0u
1s
1p
0v
1w
0w
#390000
0!
0j
#395000
1!
1j
1m
1J
1n
0k
1B
0r
0o
0l
1u
0s
0p
1v
1w
#400000
0!
0j
#405000
1!
1j
1x
0t
0q
0m
0J
0K
0L
1M
0z
0v
0u
1r
1o
0n
1k
1?
0@
0A
0B
1s
1z
1v
0o
1{
0w
0s
1p
1l
0{
1w
0p
#410000
0!
0j
#415000
1!
1j
1m
1J
1n
0k
1B
1o
0l
1p
#420000
0!
0j
#425000
1!
1j
1q
0m
0J
1K
1y
0r
0o
0n
1k
1A
0B
1C!
1r
1o
1s
0p
1l
1y!
0s
1p
0z!
0w
0p
0l
#430000
0!
0j
#435000
1!
1j
0{!
0x
0q
0K
0M
0I
0y
0v
0o
0"
0?
0A
1z!
0C!
0y!
0z!
1l
#440000
0!
0j
#445000
1!
1j
1m
1J
1n
0k
1B
1o
0l
1p
#450000
0!
0j
#455000
1!
1j
1q
0m
0J
1K
0r
0o
0n
1k
1A
0B
1r
1o
1s
0p
1l
0s
1p
#460000
0!
0j
#465000
1!
1j
1m
1J
1n
0k
1B
0r
0o
0l
1s
0p
#470000
0!
0j
#475000
1!
1j
1t
0q
0m
0J
0K
1L
1u
1r
1o
0n
1k
1@
0A
0B
0s
1v
0u
0o
1s
1p
1l
0v
1w
0p
0w
#480000
0!
0j
#485000
1!
1j
1m
1J
1n
0k
1B
1o
0l
1p
#490000
0!
0j
#495000
1!
1j
1q
0m
0J
1K
0r
0o
0n
1k
1A
0B
1u
1r
1o
0s
0p
1l
1v
0u
1s
1p
0v
1w
0w
#500000
0!
0j
#505000
1!
1j
1m
1J
1n
0k
1B
0r
0o
0l
1u
0s
0p
1v
1w
#510000
0!
0j
#515000
1!
1j
1x
0t
0q
0m
0J
0K
0L
1M
0z
0v
0u
1r
1o
0n
1k
1?
0@
0A
0B
1s
1z
1v
0o
1{
0w
0s
1p
1l
0{
1w
0p
#520000
0!
0j
#525000
1!
1j
1m
1J
1n
0k
1B
1o
0l
1p
#530000
0!
0j
#535000
1!
1j
1q
0m
0J
1K
1y
0r
0o
0n
1k
1A
0B
1C!
1r
1o
1s
0p
1l
1y!
0s
1p
1z!
0w
0p
0l
#540000
0!
0j
#545000
1!
1j
1{!
0x
0q
0K
0M
1I
0y
0v
0o
1"
0?
0A
0z!
0C!
0y!
1z!
1l
#550000
0!
0j
#555000
1!
1j
1m
1J
1n
0k
1B
1o
0l
1p
#560000
0!
0j
#565000
1!
1j
1q
0m
0J
1K
0r
0o
0n
1k
1A
0B
1r
1o
1s
0p
1l
0s
1p
#570000
0!
0j
#575000
1!
1j
1m
1J
1n
0k
1B
0r
0o
0l
1s
0p
#580000
0!
0j
#585000
1!
1j
1t
0q
0m
0J
0K
1L
1u
1r
1o
0n
1k
1@
0A
0B
0s
1v
0u
0o
1s
1p
1l
0v
1w
0p
0w
#590000
0!
0j
#595000
1!
1j
1m
1J
1n
0k
1B
1o
0l
1p
#600000
0!
0j
#605000
1!
1j
1q
0m
0J
1K
0r
0o
0n
1k
1A
0B
1u
1r
1o
0s
0p
1l
1v
0u
1s
1p
0v
1w
0w
#610000
0!
0j
#615000
1!
1j
1m
1J
1n
0k
1B
0r
0o
0l
1u
0s
0p
1v
1w
#620000
0!
0j
#625000
1!
1j
1x
0t
0q
0m
0J
0K
0L
1M
0z
0v
0u
1r
1o
0n
1k
1?
0@
0A
0B
1s
1z
1v
0o
1{
0w
0s
1p
1l
0{
1w
0p
#630000
0!
0j
#635000
1!
1j
1m
1J
1n
0k
1B
1o
0l
1p
#640000
0!
0j
#645000
1!
1j
1q
0m
0J
1K
1y
0r
0o
0n
1k
1A
0B
1C!
1r
1o
1s
0p
1l
1y!
0s
1p
0z!
0w
0p
0l
#650000
0!
0j
#655000
1!
1j
0{!
0x
0q
0K
0M
0I
0y
0v
0o
0"
0?
0A
1z!
0C!
0y!
0z!
1l
#660000
0!
0j
#665000
1!
1j
1m
1J
1n
0k
1B
1o
0l
1p
#670000
0!
0j
#675000
1!
1j
1q
0m
0J
1K
0r
0o
0n
1k
1A
0B
1r
1o
1s
0p
1l
0s
1p
#680000
0!
0j
#685000
1!
1j
1m
1J
1n
0k
1B
0r
0o
0l
1s
0p
#690000
0!
0j
#695000
1!
1j
1t
0q
0m
0J
0K
1L
1u
1r
1o
0n
1k
1@
0A
0B
0s
1v
0u
0o
1s
1p
1l
0v
1w
0p
0w
#700000
0!
0j
#705000
1!
1j
1m
1J
1n
0k
1B
1o
0l
1p
#710000
0!
0j
#715000
1!
1j
1q
0m
0J
1K
0r
0o
0n
1k
1A
0B
1u
1r
1o
0s
0p
1l
1v
0u
1s
1p
0v
1w
0w
#720000
0!
0j
#725000
1!
1j
1m
1J
1n
0k
1B
0r
0o
0l
1u
0s
0p
1v
1w
#730000
0!
0j
#735000
1!
1j
1x
0t
0q
0m
0J
0K
0L
1M
0z
0v
0u
1r
1o
0n
1k
1?
0@
0A
0B
1s
1z
1v
0o
1{
0w
0s
1p
1l
0{
1w
0p
#740000
0!
0j
#745000
1!
1j
1m
1J
1n
0k
1B
1o
0l
1p
#750000
0!
0j
#755000
1!
1j
1q
0m
0J
1K
1y
0r
0o
0n
1k
1A
0B
1C!
1r
1o
1s
0p
1l
1y!
0s
1p
1z!
0w
0p
0l
#760000
0!
0j
#765000
1!
1j
1{!
0x
0q
0K
0M
1I
0y
0v
0o
1"
0?
0A
0z!
0C!
0y!
1z!
1l
#770000
0!
0j
#775000
1!
1j
1m
1J
1n
0k
1B
1o
0l
1p
#780000
0!
0j
#785000
1!
1j
1q
0m
0J
1K
0r
0o
0n
1k
1A
0B
1r
1o
1s
0p
1l
0s
1p
#790000
0!
0j
#795000
1!
1j
1m
1J
1n
0k
1B
0r
0o
0l
1s
0p
#800000
0!
0j
#805000
1!
1j
1t
0q
0m
0J
0K
1L
1u
1r
1o
0n
1k
1@
0A
0B
0s
1v
0u
0o
1s
1p
1l
0v
1w
0p
0w
#810000
0!
0j
#815000
1!
1j
1m
1J
1n
0k
1B
1o
0l
1p
#820000
0!
0j
#825000
1!
1j
1q
0m
0J
1K
0r
0o
0n
1k
1A
0B
1u
1r
1o
0s
0p
1l
1v
0u
1s
1p
0v
1w
0w
#830000
0!
0j
#835000
1!
1j
1m
1J
1n
0k
1B
0r
0o
0l
1u
0s
0p
1v
1w
#840000
0!
0j
#845000
1!
1j
1x
0t
0q
0m
0J
0K
0L
1M
0z
0v
0u
1r
1o
0n
1k
1?
0@
0A
0B
1s
1z
1v
0o
1{
0w
0s
1p
1l
0{
1w
0p
#850000
0!
0j
#855000
1!
1j
1m
1J
1n
0k
1B
1o
0l
1p
#860000
0!
0j
#865000
1!
1j
1q
0m
0J
1K
1y
0r
0o
0n
1k
1A
0B
1C!
1r
1o
1s
0p
1l
1y!
0s
1p
0z!
0w
0p
0l
#870000
0!
0j
#875000
1!
1j
0{!
0x
0q
0K
0M
0I
0y
0v
0o
0"
0?
0A
1z!
0C!
0y!
0z!
1l
#880000
0!
0j
#885000
1!
1j
1m
1J
1n
0k
1B
1o
0l
1p
#890000
0!
0j
#895000
1!
1j
1q
0m
0J
1K
0r
0o
0n
1k
1A
0B
1r
1o
1s
0p
1l
0s
1p
#900000
0!
0j
#905000
1!
1j
1m
1J
1n
0k
1B
0r
0o
0l
1s
0p
#910000
0!
0j
#915000
1!
1j
1t
0q
0m
0J
0K
1L
1u
1r
1o
0n
1k
1@
0A
0B
0s
1v
0u
0o
1s
1p
1l
0v
1w
0p
0w
#920000
0!
0j
#925000
1!
1j
1m
1J
1n
0k
1B
1o
0l
1p
#930000
0!
0j
#935000
1!
1j
1q
0m
0J
1K
0r
0o
0n
1k
1A
0B
1u
1r
1o
0s
0p
1l
1v
0u
1s
1p
0v
1w
0w
#940000
0!
0j
#945000
1!
1j
1m
1J
1n
0k
1B
0r
0o
0l
1u
0s
0p
1v
1w
#950000
0!
0j
#955000
1!
1j
1x
0t
0q
0m
0J
0K
0L
1M
0z
0v
0u
1r
1o
0n
1k
1?
0@
0A
0B
1s
1z
1v
0o
1{
0w
0s
1p
1l
0{
1w
0p
#960000
0!
0j
#965000
1!
1j
1m
1J
1n
0k
1B
1o
0l
1p
#970000
0!
0j
#975000
1!
1j
1q
0m
0J
1K
1y
0r
0o
0n
1k
1A
0B
1C!
1r
1o
1s
0p
1l
1y!
0s
1p
1z!
0w
0p
0l
#980000
0!
0j
#985000
1!
1j
1{!
0x
0q
0K
0M
1I
0y
0v
0o
1"
0?
0A
0z!
0C!
0y!
1z!
1l
#990000
0!
0j
#995000
1!
1j
1m
1J
1n
0k
1B
1o
0l
1p
